[32mINFO    [0m cores.logger:logger.py:47 
----Request----
[2024-08-22 15:20:28.025270] Request method: GET
[2024-08-22 15:20:28.025292] Request URL: https://reqres.in/api/users
[2024-08-22 15:20:28.025297] Request data: {'page': '2'}
[2024-08-22 15:20:28.025304] Request headers: {'X-THIS_IS_TEST': 'True'}
[2024-08-22 15:20:28.025311] Request cookies: {}

[32mINFO    [0m cores.logger:logger.py:61 
----Response----
[2024-08-22 15:20:28.312989] Response code: 200
[2024-08-22 15:20:28.313099] Response text: {"page":2,"per_page":6,"total":12,"total_pages":2,"data":[{"id":7,"email":"michael.lawson@reqres.in","first_name":"Michael","last_name":"Lawson","avatar":"https://reqres.in/img/faces/7-image.jpg"},{"id":8,"email":"lindsay.ferguson@reqres.in","first_name":"Lindsay","last_name":"Ferguson","avatar":"https://reqres.in/img/faces/8-image.jpg"},{"id":9,"email":"tobias.funke@reqres.in","first_name":"Tobias","last_name":"Funke","avatar":"https://reqres.in/img/faces/9-image.jpg"},{"id":10,"email":"byron.fields@reqres.in","first_name":"Byron","last_name":"Fields","avatar":"https://reqres.in/img/faces/10-image.jpg"},{"id":11,"email":"george.edwards@reqres.in","first_name":"George","last_name":"Edwards","avatar":"https://reqres.in/img/faces/11-image.jpg"},{"id":12,"email":"rachel.howell@reqres.in","first_name":"Rachel","last_name":"Howell","avatar":"https://reqres.in/img/faces/12-image.jpg"}],"support":{"url":"https://reqres.in/#support-heading","text":"To keep ReqRes free, contributions towards server costs are appreciated!"}}
[2024-08-22 15:20:28.313136] Response headers: {'Date': 'Thu, 22 Aug 2024 09:50:28 GMT', 'Content-Type': 'application/json; charset=utf-8', 'Transfer-Encoding': 'chunked', 'Connection': 'keep-alive', 'Report-To': '{"group":"heroku-nel","max_age":3600,"endpoints":[{"url":"https://nel.heroku.com/reports?ts=1724259232&sid=c4c9725f-1ab0-44d8-820f-430df2718e11&s=ZvKevqymYD2xVR7hje2Y9tC4jZLxEXSk35McbqXorEo%3D"}]}', 'Reporting-Endpoints': 'heroku-nel=https://nel.heroku.com/reports?ts=1724259232&sid=c4c9725f-1ab0-44d8-820f-430df2718e11&s=ZvKevqymYD2xVR7hje2Y9tC4jZLxEXSk35McbqXorEo%3D', 'Nel': '{"report_to":"heroku-nel","max_age":3600,"success_fraction":0.005,"failure_fraction":0.05,"response_headers":["Via"]}', 'X-Powered-By': 'Express', 'Access-Control-Allow-Origin': '*', 'Etag': 'W/"406-ut0vzoCuidvyMf8arZpMpJ6ZRDw"', 'Via': '1.1 vegur', 'Cache-Control': 'max-age=14400', 'CF-Cache-Status': 'HIT', 'Age': '2219', 'Vary': 'Accept-Encoding', 'Server': 'cloudflare', 'CF-RAY': '8b71f5736cb259ee-DEL', 'Content-Encoding': 'gzip'}
[2024-08-22 15:20:28.313214] Response cookies: {}
-----